{
    "entry": {
        "main": [
            "./scripts/main.js",
            "./styles/main.scss"
        ],
        "ie": [
            "./styles/ie.scss"
        ],
        "modernizr": [
            "./scripts/libs/modernizr.js"
        ]
    },
    "publicPath": "/app/themes/velux",
    "devUrl": "http://velux.localhost",
    "proxyUrl": "http://localhost:3000",
    "cacheBusting": "[name]_[hash:8]",
    "watch": [
        "app/**/*.php",
        "config/**/*.php",
        "resources/views/**/*.php"
    ]
}
